{
    "schema_version":"1.0",
    "criteria":[
        {
            "tguid":"Sequential_Output.PerChr",
            "min_pass":1
        },
        {
            "tguid":"Sequential_Input.PerChr",
            "min_pass":1
        },
        {
            "tguid":"Sequential_Output.Block.speed",
            "reference":{
                "value":0,
                "operator":"gt"
            }
        },
        {
            "tguid":"Sequential_Output.PerChr.speed",
            "reference":{
                "value":0,
                "operator":"gt"
            }
        },
        {
            "tguid":"Sequential_Output.Rewrite.speed",
            "reference":{
                "value":0,
                "operator":"gt"
            }
        },
        {
            "tguid":"Sequential_Input.PerChr.speed",
            "reference":{
                "value":0,
                "operator":"gt"
            }
        },
        {
            "tguid":"Sequential_Input.Block.speed",
            "reference":{
                "value":0,
                "operator":"gt"
            }
        },
        {
            "tguid":"Random.Seeks.speed",
            "reference":{
                "value":0,
                "operator":"gt"
            }
        },
        {
            "tguid":"Sequential_Create.Create.speed",
            "reference":{
                "value":0,
                "operator":"gt"
            }
        },
        {
            "tguid":"Random_Create.Create.speed",
            "reference":{
                "value":0,
                "operator":"gt"
            }
        }
    ]
}
