{
    "testPlanName": "testplan_agl",
    "tests": [
        {
            "testName": "Functional.boost",
            "spec": "default",
            "timeout": "5m"
        },
	{
            "testName": "Functional.neon",
	    "spec": "default",
	    "timeout": "5m"
	},
	{
            "testName": "Functional.thrift",
	    "spec": "default",
	    "timeout": "5m"
	},
	{
            "testName": "Functional.libpcap",
	    "spec": "default",
	    "timeout": "5m"
	},
	{
            "testName": "Functional.commonAPI_Dbus",
	    "spec": "default",
	    "timeout": "5m"
	},
	{
            "testName": "Functional.glibc",
	    "spec": "default",
	    "timeout": "5m"
	},
	{
            "testName": "Functional.xorg-macros",
	    "spec": "default",
	    "timeout": "5m"
	},
	{
            "testName": "Functional.libogg",
	    "spec": "default",
	    "timeout": "5m"
	},
	{
            "testName": "Functional.libwebsocket",
	    "spec": "default",
	    "timeout": "5m"
	},
	{
            "testName": "Functional.glib2",
	    "spec": "default",
	    "timeout": "5m"
	},
	{
            "testName": "Functional.tiff",
	    "spec": "default",
	    "timeout": "5m"
	},
	{
            "testName": "Functional.pppd",
	    "spec": "default",
	    "timeout": "5m"
	},
	{
            "testName": "Functional.curl",
	    "spec": "default",
	    "timeout": "5m"
	},
	{
            "testName": "Functional.libtar",
	    "spec": "default",
	    "timeout": "5m"
	},
	{
            "testName": "Functional.croco",
	    "spec": "default",
	    "timeout": "5m"
	},
	{
            "testName": "Functional.giflib",
	    "spec": "default",
	    "timeout": "5m"
	},
	{
            "testName": "Functional.vsomeip",
	    "spec": "default",
	    "timeout": "5m"
	},
	{
            "testName": "Functional.bsdiff",
	    "spec": "default",
	    "timeout": "5m"
	},
	{
            "testName": "Functional.librsvg",
	    "spec": "default",
	    "timeout": "5m"
	},
	{
            "testName": "Functional.boost",
	    "spec": "default",
	    "timeout": "5m"
	},
	{
            "testName": "Functional.fixesproto",
	    "spec": "default",
	    "timeout": "5m"
	},
	{
            "testName": "Functional.net-tools",
	    "spec": "default",
	    "timeout": "5m"
	},
	{
            "testName": "Functional.kmod",
	    "spec": "default",
	    "timeout": "5m"
	},
	{
            "testName": "Functional.commonAPI_C++",
	    "spec": "default",
	    "timeout": "5m"
	},
	{
            "testName": "Functional.iputils",
	    "spec": "default",
	    "timeout": "5m"
	},
	{
            "testName": "Functional.lwip",
	    "spec": "default",
	    "timeout": "5m"
	},
	{
            "testName": "Functional.pixman",
	    "spec": "default",
	    "timeout": "5m"
	},
	{
            "testName": "Functional.libspeex",
	    "spec": "default",
	    "timeout": "5m"
	},
	{
            "testName": "Functional.hciattach",
	    "spec": "default",
	    "timeout": "5m"
	},
	{
            "testName": "Functional.fuse",
	    "spec": "default",
	    "timeout": "5m"
	},
	{
            "testName": "Functional.iptables",
	    "spec": "default",
	    "timeout": "5m"
	},
	{
            "testName": "Functional.commonAPI_SomeIp",
	    "spec": "default",
	    "timeout": "5m"
	},
	{
            "testName": "Functional.imagemagick",
	    "spec": "default",
	    "timeout": "5m"
	},
	{
            "testName": "Functional.protobuf",
	    "spec": "default",
	    "timeout": "5m"
	}
    ]
}
