{
    "testName": "Benchmark.tiobench",
    "specs": {
        "sata": {
            "MOUNT_BLOCKDEV":"$SATA_DEV",
            "MOUNT_POINT":"$SATA_MP",
            "THREADS":"4",
            "SIZE":"10"
        },
        "mmc": {
            "MOUNT_BLOCKDEV":"$MMC_DEV",
            "MOUNT_POINT":"$MMC_MP",
            "THREADS":"4",
            "SIZE":"10"
        },
        "usb": {
            "MOUNT_BLOCKDEV":"$USB_DEV",
            "MOUNT_POINT":"$USB_MP",
            "THREADS":"4",
            "SIZE":"10"
        },
        "default": {
            "MOUNT_BLOCKDEV":"ROOT",
            "MOUNT_POINT":"$BOARD_TESTDIR/work",
            "THREADS":"4",
            "SIZE":"10"
        }
    }
}




