{
    "testName": "Benchmark.rt_migrate_test",
    "specs": {
        "default": {
            "PARAMS": "-l 10"
        },
        "latest": {
            "PER_JOB_BUILD": "true",
            "gitrepo": "https://git.kernel.org/pub/scm/utils/rt-tests/rt-tests.git",
            "gitref": "unstable/devel/v1.1.1",
            "PARAMS": " "
        }
    }
}
