# Automatically generated on fuego host by thresholds.awk based on
# 36 results of 0\.18\.04\. firmware regexp crossed with [796, 872] build range
[Audio.Burn|le]
1000
[Audio.Compile|le]
1000
[Audio.None|le]
1000
[Audio.Read|le]
1000
[Audio.Video|le]
1000
[Audio.Write|le]
1000
[Audio.X|le]
1000
[Gaming.Burn|le]
1000
[Gaming.Compile|le]
1000
[Gaming.None|le]
1000
[Gaming.Read|le]
1000
[Gaming.Video|le]
1000
[Gaming.Write|le]
1000
[Gaming.X|le]
1000
[Video.Burn|le]
1000
[Video.Compile|le]
1000
[Video.None|le]
1000
[Video.Read|le]
1000
[Video.Write|le]
1000
[Video.X|le]
1000
[X.Burn|le]
1000
[X.Compile|le]
1000
[X.None|le]
1000
[X.Read|le]
1000
[X.Video|le]
1000
[X.Write|le]
1000
