{
    "schema_version":"1.0",
    "criteria":[
        {
            "tguid":"fs_mark.FS_Mark",
            "reference":{ 
                "value":15,
		"operator":"gt"
            }
        }
    ]
}
