{
    "testName": "Benchmark.IOzone",
    "success_links": {"log": "testlog.txt", "plot": "plot.png", "xlsx": "results.xlsx"},
    "specs": {
        "sata": {
            "MOUNT_BLOCKDEV":"$SATA_DEV",
            "MOUNT_POINT":"$SATA_MP",
            "FILE_SIZE":"2M",
            "TESTS":"'-i 0 -i 1 -i 2 -i 6 -i 7 -i 8 -i 9'"
        },
        "mmc": {
            "MOUNT_BLOCKDEV":"$MMC_DEV",
            "MOUNT_POINT":"$MMC_MP",
            "FILE_SIZE":"2M",
            "TESTS":"'-i 0 -i 1 -i 2 -i 6 -i 7 -i 8 -i 9'"
        },
        "usb": {
            "MOUNT_BLOCKDEV":"$USB_DEV",
            "MOUNT_POINT":"$USB_MP",
            "FILE_SIZE":"2M",
            "TESTS":"'-i 0 -i 1 -i 2 -i 6 -i 7 -i 8 -i 9'"
        },
        "nopread": {
            "MOUNT_BLOCKDEV":"ROOT",
            "MOUNT_POINT":"$BOARD_TESTDIR/work",
            "FILE_SIZE":"2M",
            "TESTS":"'-i 0 -i 1 -i 2 -i 6 -i 7 -i 8'"
        },
        "default": {
            "MOUNT_BLOCKDEV":"ROOT",
            "MOUNT_POINT":"$BOARD_TESTDIR/work",
            "FILE_SIZE":"2M",
            "TESTS":"'-i 0 -i 1 -i 2 -i 6 -i 7 -i 8 -i 9'"
        }
    }
}
